DPLYR session
…
We start by loading our data from the Trainsets folder. We use two packages readr and here to load the csv file into R

library(readr)
library(here)

## Warning: package 'here' was built under R version 4.1.3

## here() starts at N:/_Everyone/Pablo Leon/02 MY  WIP PROJECTS/02 09 R Tuition sessions/09 DPLYR Session 05 wip/DPLYR verbs

# New file "MHS data v10.csv"
MHS_data_v10 <- read_csv(here("Trainsets","MHS data v10.csv"), 
                        col_types = cols(ReportingDate = col_date(format = "%d/%m/%Y")))
MHS_data_v10

## # A tibble: 91,967 x 10
##    OrgName    OrgCode OrgType Provider_Flag MetricName ReportingDate Compartment
##    <chr>      <chr>   <chr>   <chr>         <chr>      <date>        <chr>      
##  1 NHS North~ 00L     CCG - ~ Not Midlands~ PROMs : H~ 2019-03-31    Orthopaedi~
##  2 NHS North~ 00L     CCG - ~ Not Midlands~ Trauma an~ 2022-03-31    Pathway Im~
##  3 NHS North~ 00L     CCG - ~ Not Midlands~ Trauma an~ 2021-12-31    Pathway Im~
##  4 NHS North~ 00L     CCG - ~ Not Midlands~ Trauma an~ 2021-09-30    Pathway Im~
##  5 NHS North~ 00L     CCG - ~ Not Midlands~ Trauma an~ 2021-06-30    Pathway Im~
##  6 NHS North~ 00L     CCG - ~ Not Midlands~ Trauma an~ 2021-03-31    Pathway Im~
##  7 NHS North~ 00L     CCG - ~ Not Midlands~ Trauma an~ 2020-12-31    Pathway Im~
##  8 NHS North~ 00L     CCG - ~ Not Midlands~ Trauma an~ 2020-09-30    Pathway Im~
##  9 NHS North~ 00L     CCG - ~ Not Midlands~ Trauma an~ 2020-06-30    Pathway Im~
## 10 NHS North~ 00L     CCG - ~ Not Midlands~ Trauma an~ 2020-03-31    Pathway Im~
## # ... with 91,957 more rows, and 3 more variables: value <dbl>, OrgName2 <chr>,
## #   `Provider name for Chart` <chr>
…
## The following objects are masked from 'package:stats':
## 
##     filter, lag

## The following objects are masked from 'package:base':
## 
##     intersect, setdiff, setequal, union

library(readr)
library(here)
# New file "MHS data v10.csv"
MHS_data_v10_A <- MHS_data_v10 %>%  select(Provider_Flag, "Provider name for Chart", OrgName, value, OrgType)
MHS_data_v10_A

## # A tibble: 91,967 x 5
##    Provider_Flag         `Provider name for Chart` OrgName         value OrgType
##    <chr>                 <chr>                     <chr>           <dbl> <chr>  
##  1 Not Midlands Provider 00L                       NHS Northumber~  17.1 CCG - ~
##  2 Not Midlands Provider 00L                       NHS Northumber~  37.5 CCG - ~
##  3 Not Midlands Provider 00L                       NHS Northumber~  36.4 CCG - ~
##  4 Not Midlands Provider 00L                       NHS Northumber~  34.2 CCG - ~
##  5 Not Midlands Provider 00L                       NHS Northumber~  34.2 CCG - ~
##  6 Not Midlands Provider 00L                       NHS Northumber~  35.0 CCG - ~
##  7 Not Midlands Provider 00L                       NHS Northumber~  35.0 CCG - ~
##  8 Not Midlands Provider 00L                       NHS Northumber~  34.8 CCG - ~
##  9 Not Midlands Provider 00L                       NHS Northumber~  32.8 CCG - ~
## 10 Not Midlands Provider 00L                       NHS Northumber~  30.2 CCG - ~
## # ... with 91,957 more rows

Select is also used to rename variables

One feature of Select() function is that we can use it to rename variables while selecting them, we first assign the new name to the variable, followed by an equal sign and its previous_name

MHS_data_v10B <- MHS_data_v10 %>% 
              select(Provider_Flag, Provider = "Provider name for Chart",
                     OrgName, MetricName,value, OrgType,)
MHS_data_v10B

## # A tibble: 91,967 x 6
##    Provider_Flag         Provider OrgName               MetricName value OrgType
##    <chr>                 <chr>    <chr>                 <chr>      <dbl> <chr>  
##  1 Not Midlands Provider 00L      NHS Northumberland C~ PROMs : H~  17.1 CCG - ~
##  2 Not Midlands Provider 00L      NHS Northumberland C~ Trauma an~  37.5 CCG - ~
##  3 Not Midlands Provider 00L      NHS Northumberland C~ Trauma an~  36.4 CCG - ~
##  4 Not Midlands Provider 00L      NHS Northumberland C~ Trauma an~  34.2 CCG - ~
##  5 Not Midlands Provider 00L      NHS Northumberland C~ Trauma an~  34.2 CCG - ~
##  6 Not Midlands Provider 00L      NHS Northumberland C~ Trauma an~  35.0 CCG - ~
##  7 Not Midlands Provider 00L      NHS Northumberland C~ Trauma an~  35.0 CCG - ~
##  8 Not Midlands Provider 00L      NHS Northumberland C~ Trauma an~  34.8 CCG - ~
##  9 Not Midlands Provider 00L      NHS Northumberland C~ Trauma an~  32.8 CCG - ~
## 10 Not Midlands Provider 00L      NHS Northumberland C~ Trauma an~  30.2 CCG - ~
## # ... with 91,957 more rows
…
From this data set, we can inspect just its variable names to decide which ones to drop

names(MHS_data_v10B)

## [1] "Provider_Flag" "Provider"      "OrgName"       "MetricName"   
## [5] "value"         "OrgType"

Lets say we want to remove provider flat, we use select as shown below for that

library(dplyr)
MHS_data_C <- MHS_data_v10B %>% 
              select(-c(Provider_Flag))
MHS_data_C

## # A tibble: 91,967 x 5
##    Provider OrgName                MetricName                      value OrgType
##    <chr>    <chr>                  <chr>                           <dbl> <chr>  
##  1 00L      NHS Northumberland CCG PROMs : Hip Replacement (prima~  17.1 CCG - ~
##  2 00L      NHS Northumberland CCG Trauma and orthopaedics (TFCs ~  37.5 CCG - ~
##  3 00L      NHS Northumberland CCG Trauma and orthopaedics (TFCs ~  36.4 CCG - ~
##  4 00L      NHS Northumberland CCG Trauma and orthopaedics (TFCs ~  34.2 CCG - ~
##  5 00L      NHS Northumberland CCG Trauma and orthopaedics (TFCs ~  34.2 CCG - ~
##  6 00L      NHS Northumberland CCG Trauma and orthopaedics (TFCs ~  35.0 CCG - ~
##  7 00L      NHS Northumberland CCG Trauma and orthopaedics (TFCs ~  35.0 CCG - ~
##  8 00L      NHS Northumberland CCG Trauma and orthopaedics (TFCs ~  34.8 CCG - ~
##  9 00L      NHS Northumberland CCG Trauma and orthopaedics (TFCs ~  32.8 CCG - ~
## 10 00L      NHS Northumberland CCG Trauma and orthopaedics (TFCs ~  30.2 CCG - ~
## # ... with 91,957 more rows
…
3.Filter

Filter is used to restrict the number of rows, by selecting specific variable values. It allows us to combine different boolean operator( AND, OR,NOT, AND NOT).

3.1 Keep just Midlands providers

In the example below, we are going to restrict our data by just one variable value, selecting from Provider_flag all data for Midlands region. Note that this data set is the one were we have previously renamed Provider variable to make it shorter.

library(dplyr)
MHS_data_v10_MIDL <- MHS_data_v10B  %>% filter(Provider_Flag == 'Midlands Provider')
MHS_data_v10_MIDL

## # A tibble: 17,896 x 6
##    Provider_Flag     Provider                   OrgName MetricName value OrgType
##    <chr>             <chr>                      <chr>   <chr>      <dbl> <chr>  
##  1 Midlands Provider NHS East Leicestershire a~ NHS Ea~ PROMs : H~  16.7 CCG - ~
##  2 Midlands Provider NHS East Leicestershire a~ NHS Ea~ Trauma an~  44.5 CCG - ~
##  3 Midlands Provider NHS East Leicestershire a~ NHS Ea~ Trauma an~  44.8 CCG - ~
##  4 Midlands Provider NHS East Leicestershire a~ NHS Ea~ Trauma an~  44.8 CCG - ~
##  5 Midlands Provider NHS East Leicestershire a~ NHS Ea~ Trauma an~  45.2 CCG - ~
##  6 Midlands Provider NHS East Leicestershire a~ NHS Ea~ Trauma an~  46.8 CCG - ~
##  7 Midlands Provider NHS East Leicestershire a~ NHS Ea~ Trauma an~  45.1 CCG - ~
##  8 Midlands Provider NHS East Leicestershire a~ NHS Ea~ Trauma an~  44.6 CCG - ~
##  9 Midlands Provider NHS East Leicestershire a~ NHS Ea~ Trauma an~  44.4 CCG - ~
## 10 Midlands Provider NHS East Leicestershire a~ NHS Ea~ Trauma an~  43.6 CCG - ~
## # ... with 17,886 more rows
3.2 Select two organisations

So from the above table, we choose to focus our analysis on two specific OrgNames: NHS Berkshire West CCG and NHS Blackpool CCG.

This example combines two booleans in the filter() function (AND and OR), this shows how to subset data from the original data set for Midlands region focusing solely on NHS Leixester City CGG and NHS Stoke on Trent CCG.

Data2orgs <- MHS_data_v10 %>%
              select(Provider_Flag, Provider = "Provider name for Chart",
                     OrgName, MetricName, value,ReportingDate, OrgType) %>% 
              filter (Provider_Flag == 'Midlands Provider' &
                        ( OrgName == 'NHS Leicester City CCG' | 
                            OrgName ==  'NHS Stoke on Trent CCG'))
Data2orgs                  

## # A tibble: 22 x 7
##    Provider_Flag     Provider     OrgName MetricName value ReportingDate OrgType
##    <chr>             <chr>        <chr>   <chr>      <dbl> <date>        <chr>  
##  1 Midlands Provider NHS Leicest~ NHS Le~ PROMs : H~  16.7 2019-03-31    CCG - ~
##  2 Midlands Provider NHS Leicest~ NHS Le~ Trauma an~  51.5 2022-03-31    CCG - ~
##  3 Midlands Provider NHS Leicest~ NHS Le~ Trauma an~  52.3 2021-12-31    CCG - ~
##  4 Midlands Provider NHS Leicest~ NHS Le~ Trauma an~  52.1 2021-09-30    CCG - ~
##  5 Midlands Provider NHS Leicest~ NHS Le~ Trauma an~  51.1 2021-06-30    CCG - ~
##  6 Midlands Provider NHS Leicest~ NHS Le~ Trauma an~  51.9 2021-03-31    CCG - ~
##  7 Midlands Provider NHS Leicest~ NHS Le~ Trauma an~  50.4 2020-12-31    CCG - ~
##  8 Midlands Provider NHS Leicest~ NHS Le~ Trauma an~  49.4 2020-09-30    CCG - ~
##  9 Midlands Provider NHS Leicest~ NHS Le~ Trauma an~  49.5 2020-06-30    CCG - ~
## 10 Midlands Provider NHS Leicest~ NHS Le~ Trauma an~  49.1 2020-03-31    CCG - ~
## # ... with 12 more rows
…
This specific script combines mutate() with ifelse() function to combine a set of variable creation within a string of ifelse() conditions.

library(dplyr)
MHSV10_ORG_TYPES <-MHS_data_v10_MIDL %>% 
                                  select(OrgName,OrgType) %>% 
                                  mutate(
                                            TYPE = ifelse(grepl('CCG',OrgName),'CCG',
                                                      (ifelse(grepl('ICB',OrgName),'ICB',
                                                      (ifelse(grepl('Trust',OrgName),'TRUST',
                                                      (ifelse(grepl('STP',OrgName),'STP',0)))))))
                                        )
MHSV10_ORG_TYPES

## # A tibble: 17,896 x 3
##    OrgName                                 OrgType                       TYPE 
##    <chr>                                   <chr>                         <chr>
##  1 NHS East Leicestershire and Rutland CCG CCG - Care Comissioning Group CCG  
##  2 NHS East Leicestershire and Rutland CCG CCG - Care Comissioning Group CCG  
##  3 NHS East Leicestershire and Rutland CCG CCG - Care Comissioning Group CCG  
##  4 NHS East Leicestershire and Rutland CCG CCG - Care Comissioning Group CCG  
##  5 NHS East Leicestershire and Rutland CCG CCG - Care Comissioning Group CCG  
##  6 NHS East Leicestershire and Rutland CCG CCG - Care Comissioning Group CCG  
##  7 NHS East Leicestershire and Rutland CCG CCG - Care Comissioning Group CCG  
##  8 NHS East Leicestershire and Rutland CCG CCG - Care Comissioning Group CCG  
##  9 NHS East Leicestershire and Rutland CCG CCG - Care Comissioning Group CCG  
## 10 NHS East Leicestershire and Rutland CCG CCG - Care Comissioning Group CCG  
## # ... with 17,886 more rows
…
Now we can check the frequency of each country in the original table

# Check variables at the top of the data frame
# This allows us to create an alphabetical sorted list of countries
library(dplyr)
Test <- data_confirmed_prep %>% 
                select(Country)%>%
                group_by(Country) %>% 
                summarize ( freq = n()) %>% 
                ungroup() %>% 
                arrange(desc(Country))
Test

## # A tibble: 199 x 2
##    Country               freq
##    <chr>                <int>
##  1 Zimbabwe                 1
##  2 Zambia                   1
##  3 Yemen                    1
##  4 Winter Olympics 2022     1
##  5 West Bank and Gaza       1
##  6 Vietnam                  1
##  7 Venezuela                1
##  8 Vanuatu                  1
##  9 Uzbekistan               1
## 10 US                       1
## # ... with 189 more rows
…
Read about this [pivot_longer_function]https://tidyr.tidyverse.org/reference/pivot_longer.html

We need first to pivot_longer then summarize results by country

library(tidyr)     
library(dplyr)

UK_conf_piv <- UK_confirmed %>%
                        pivot_longer(names_to = "date",
                                     cols = 3:ncol(UK_confirmed),
                                     values_to = "Confirmed") 

UK_conf_piv

## # A tibble: 12,824 x 4
##    Province Country        date    Confirmed
##    <chr>    <chr>          <chr>       <dbl>
##  1 Anguilla United Kingdom 1/22/20         0
##  2 Anguilla United Kingdom 1/23/20         0
##  3 Anguilla United Kingdom 1/24/20         0
##  4 Anguilla United Kingdom 1/25/20         0
##  5 Anguilla United Kingdom 1/26/20         0
##  6 Anguilla United Kingdom 1/27/20         0
##  7 Anguilla United Kingdom 1/28/20         0
##  8 Anguilla United Kingdom 1/29/20         0
##  9 Anguilla United Kingdom 1/30/20         0
## 10 Anguilla United Kingdom 1/31/20         0
## # ... with 12,814 more rows
…
library(tidyr)     
library(dplyr)
UK_conf_group_by <- UK_conf_piv %>% 
  select(Country,date,Confirmed) %>% 
                        group_by(Country,date) %>%
                        summarise("Confirmed" = sum(Confirmed,na.rm = T)) %>% 
                        arrange(date)

## `summarise()` has grouped output by 'Country'. You can override using the
## `.groups` argument.

UK_conf_group_by

## # A tibble: 916 x 3
## # Groups:   Country [1]
##    Country        date    Confirmed
##    <chr>          <chr>       <dbl>
##  1 United Kingdom 1/1/21    2549671
##  2 United Kingdom 1/1/22   13174530
##  3 United Kingdom 1/10/21   3081319
##  4 United Kingdom 1/10/22  14708454
##  5 United Kingdom 1/11/21   3127617
##  6 United Kingdom 1/11/22  14825809
##  7 United Kingdom 1/12/21   3173273
##  8 United Kingdom 1/12/22  14957778
##  9 United Kingdom 1/13/21   3220936
## 10 United Kingdom 1/13/22  15064277
## # ... with 906 more rows

We we will create a new variable to define date as proper DATE variable in R and we will discard original date variable

library(tidyr)     
library(dplyr)
UK_conf_date <- UK_conf_group_by %>% 
                mutate(DATE= as.Date(date,"%m/%d/%y")) %>% 
                arrange(DATE)
UK_conf_date

## # A tibble: 916 x 4
## # Groups:   Country [1]
##    Country        date    Confirmed DATE      
##    <chr>          <chr>       <dbl> <date>    
##  1 United Kingdom 1/22/20         0 2020-01-22
##  2 United Kingdom 1/23/20         0 2020-01-23
##  3 United Kingdom 1/24/20         0 2020-01-24
##  4 United Kingdom 1/25/20         0 2020-01-25
##  5 United Kingdom 1/26/20         0 2020-01-26
##  6 United Kingdom 1/27/20         0 2020-01-27
##  7 United Kingdom 1/28/20         0 2020-01-28
##  8 United Kingdom 1/29/20         0 2020-01-29
##  9 United Kingdom 1/30/20         0 2020-01-30
## 10 United Kingdom 1/31/20         2 2020-01-31
## # ... with 906 more rows

Now we can keep our DATE variable and plot the results

library(tidyr)     
library(dplyr)
UK_conf_PLOT <- UK_conf_date %>% 
                select(Country,DATE,Confirmed) %>% 
                arrange(DATE) 
UK_conf_PLOT

## # A tibble: 916 x 3
## # Groups:   Country [1]
##    Country        DATE       Confirmed
##    <chr>          <date>         <dbl>
##  1 United Kingdom 2020-01-22         0
##  2 United Kingdom 2020-01-23         0
##  3 United Kingdom 2020-01-24         0
##  4 United Kingdom 2020-01-25         0
##  5 United Kingdom 2020-01-26         0
##  6 United Kingdom 2020-01-27         0
##  7 United Kingdom 2020-01-28         0
##  8 United Kingdom 2020-01-29         0
##  9 United Kingdom 2020-01-30         0
## 10 United Kingdom 2020-01-31         2
## # ... with 906 more rows
…
